<?xml version="1.0" standalone="no"?>
<!DOCTYPE svg PUBLIC "-//W3C//DTD SVG 1.1//EN" "http://www.w3.org/Graphics/SVG/1.1/DTD/svg11.dtd" >
<svg>
<metadata>
Created by FontForge 20120731 at Sat May 28 13:26:18 2016
 By www
The digitally encoded machine readable software for producing the Typefaces licensed to you is copyrighted (c) 1999,2000, Linotype Library GmbH or its affiliated Linotype-Hell companies. All rights reserved. This software is now the property of Heidelberger Druckmaschinen AG and its licensors and may not be reproduced, used, displayed, modified, disclosed or transferred without the express written approval of Heidelberger Druckmaschinen AG.
</metadata>
<defs>
<font id="FrutigerLT-Light" horiz-adv-x="556" >
  <font-face 
    font-family="Frutiger LT 45 Light"
    font-weight="400"
    font-stretch="normal"
    units-per-em="1000"
    panose-1="2 11 5 0 0 0 0 0 0 0"
    ascent="800"
    descent="-200"
    x-height="510"
    cap-height="698"
    bbox="-152 -250 1000 911"
    underline-thickness="102"
    underline-position="-154"
    unicode-range="U+0020-2122"
  />
<missing-glyph horiz-adv-x="500" 
d="M442 8v496h-384v-496h384zM50 512h400v-512h-400v512z" />
    <glyph glyph-name=".notdef" horiz-adv-x="500" 
d="M442 8v496h-384v-496h384zM50 512h400v-512h-400v512z" />
    <glyph glyph-name=".null" horiz-adv-x="0" 
 />
    <glyph glyph-name="nonmarkingreturn" horiz-adv-x="278" 
 />
    <glyph glyph-name="space" unicode=" " horiz-adv-x="278" 
 />
    <glyph glyph-name="exclam" unicode="!" horiz-adv-x="389" 
d="M235 698h-81l12 -529h57zM154 0h81v84h-81v-84z" />
    <glyph glyph-name="quotedbl" unicode="&#x22;" 
d="M179 480h63v218h-63v-218zM314 480h63v218h-63v-218z" />
    <glyph glyph-name="numbersign" unicode="#" 
d="M107 0h61l31 219h130l-31 -219h61l31 219h104v54h-96l21 152h103v54h-96l31 219h-61l-31 -219h-130l31 219h-61l-31 -219h-114v-54h107l-22 -152h-111v-54h104zM337 273h-130l21 152h130z" />
    <glyph glyph-name="dollar" unicode="$" 
d="M308 57v250q43 -24 70 -51q26 -28 27 -65q-1 -55 -27 -88q-26 -34 -70 -46zM257 413q-44 24 -72 52q-31 27 -31 65q0 52 31 80q30 28 72 35v-232zM257 771v-65q-75 -12 -122 -58q-49 -46 -50 -120q1 -70 56 -114q25 -23 55 -41q31 -19 61 -37v-287q-5 -1 -9 -1
q-95 0 -154 41l-7 -71q56 -28 158 -30q6 0 12 1v-78h51v83q68 15 117 61q48 46 49 130q0 40 -14 71q-14 30 -38 53q-23 24 -52 42q-30 18 -62 34v265q75 -1 124 -26l11 63q-35 13 -72 19q-37 4 -63 4v61h-51z" />
    <glyph glyph-name="percent" unicode="%" horiz-adv-x="1000" 
d="M579 180q0 -81 38 -133q38 -53 120 -54q84 1 122 54q36 52 36 133q0 83 -36 134q-38 52 -122 53q-82 -1 -120 -53q-38 -51 -38 -134zM642 180q0 24 5 48q5 23 15 43q11 20 30 31q18 11 45 11q29 0 48 -11q18 -11 28 -31q11 -20 15 -43q4 -24 4 -48q0 -23 -4 -46t-15 -43
q-10 -20 -28 -31q-19 -13 -48 -13q-27 0 -45 13q-19 11 -30 31q-10 20 -15 43t-5 46zM105 518q0 -81 38 -133q38 -53 120 -54q84 1 122 54q36 52 36 133q0 83 -36 134q-38 52 -122 53q-82 -1 -120 -53q-38 -51 -38 -134zM168 518q0 24 5 48q5 23 15 43q11 20 30 31
q18 11 45 11q29 0 48 -11q18 -11 28 -31q11 -20 15 -43q4 -24 4 -48q0 -23 -4 -46t-15 -43q-10 -20 -28 -31q-19 -13 -48 -13q-27 0 -45 13q-19 11 -30 31q-10 20 -15 43t-5 46zM264 -22h58l413 742h-58z" />
    <glyph glyph-name="ampersand" unicode="&#x26;" horiz-adv-x="667" 
d="M492 171l-184 205q32 16 62 34q30 16 54 37t38 51q14 28 14 68q-1 73 -50 109q-49 35 -114 35q-72 0 -128 -38q-59 -39 -60 -114q1 -52 30 -93q28 -42 61 -79q-70 -26 -117 -74q-47 -49 -48 -129q1 -100 71 -148q66 -47 158 -47q125 -1 212 92l74 -78h88l-119 129
q78 111 78 252h-60q1 -115 -60 -212zM250 347l203 -224q-31 -36 -77 -58q-46 -23 -95 -23q-65 0 -112 37q-49 36 -50 107q1 59 42 100q38 41 89 61zM193 554q1 51 36 77q17 13 38 19q20 6 41 6q96 -1 99 -101q0 -30 -12 -52t-32 -39q-20 -16 -43 -28l-48 -24q-29 31 -53 67
q-25 35 -26 75z" />
    <glyph glyph-name="quotesingle" unicode="'" horiz-adv-x="278" 
d="M108 480h63v218h-63v-218z" />
    <glyph glyph-name="parenleft" unicode="(" horiz-adv-x="278" 
d="M255 -140q-56 105 -101 216q-48 111 -49 232q1 121 49 233q45 111 101 215h-42q-67 -101 -118 -212q-52 -110 -53 -236q1 -125 53 -235q51 -110 118 -213h42z" />
    <glyph glyph-name="parenright" unicode=")" horiz-adv-x="278" 
d="M23 756q58 -104 103 -215q46 -112 47 -233q-1 -121 -47 -232q-45 -111 -103 -216h42q69 103 119 213t52 235q-2 126 -52 236q-50 111 -119 212h-42z" />
    <glyph glyph-name="asterisk" unicode="*" 
d="M249 698l7 -153l-147 56l-17 -58l147 -42l-94 -119l49 -38l84 131l86 -131l50 38l-97 119l147 42l-19 58l-145 -56l7 153h-58z" />
    <glyph glyph-name="plus" unicode="+" horiz-adv-x="600" 
d="M46 219h219v-219h69v219h219v69h-219v219h-69v-219h-219v-69z" />
    <glyph glyph-name="comma" unicode="," horiz-adv-x="278" 
d="M54 -134h63l79 218h-84z" />
    <glyph glyph-name="hyphenminus" unicode="-" horiz-adv-x="333" 
d="M41 235h251v69h-251v-69z" />
    <glyph glyph-name="period" unicode="." horiz-adv-x="278" 
d="M98 0h81v84h-81v-84z" />
    <glyph glyph-name="slash" unicode="/" horiz-adv-x="278" 
d="M-31 -12h69l271 722h-69z" />
    <glyph glyph-name="zero" unicode="0" 
d="M278 645q55 -1 87 -29q32 -29 48 -75t22 -96q3 -52 3 -96t-3 -95q-6 -50 -22 -96t-48 -74q-32 -31 -87 -31q-54 0 -85 31q-33 28 -49 74t-21 96q-5 51 -5 95t5 96q5 50 21 96t49 75q31 28 85 29zM278 705q-68 -1 -113 -32q-46 -32 -71 -84q-47 -110 -45 -240
q-1 -55 9 -116q9 -62 32 -116q24 -54 70 -88q45 -35 118 -36q75 1 121 36q46 34 69 88q24 54 32 116q7 61 7 116q2 130 -44 240q-25 52 -70 84q-45 31 -115 32z" />
    <glyph glyph-name="one" unicode="1" 
d="M123 566l38 -45l113 99v-620h69v698h-62z" />
    <glyph glyph-name="two" unicode="2" 
d="M50 0h419v60h-334l126 138q71 76 130 161q60 84 62 163q-1 94 -58 139q-56 44 -144 44q-43 0 -89 -13q-47 -14 -87 -34l12 -63q78 49 168 50q54 -1 88 -35t35 -91q-2 -64 -52 -137q-50 -74 -116 -145l-160 -177v-60z" />
    <glyph glyph-name="three" unicode="3" 
d="M150 332h64q29 0 63 -3q32 -4 61 -18q29 -13 48 -39q19 -27 19 -72q-2 -78 -57 -112q-56 -35 -122 -35q-38 0 -80 8q-44 7 -88 26l-8 -66q83 -29 172 -28q108 1 179 54q71 52 73 147q0 72 -37 118q-37 47 -108 51v2q65 17 105 61q39 43 40 106q-2 93 -67 134
q-65 39 -155 39q-90 -1 -169 -32l6 -65q74 36 156 37q60 0 109 -26q23 -14 37 -35q14 -22 14 -52q0 -48 -22 -76q-23 -28 -60 -42q-36 -13 -77 -17q-41 -5 -78 -5h-18v-60z" />
    <glyph glyph-name="four" unicode="4" 
d="M356 221h-270l268 408h2v-408zM23 161h333v-161h69v161h103v60h-103v477h-88l-314 -469v-68z" />
    <glyph glyph-name="five" unicode="5" 
d="M458 698h-357l-7 -351q70 22 151 22q175 1 175 -158q-2 -80 -58 -119q-55 -39 -127 -39q-78 0 -149 36v-71q72 -25 149 -25q115 0 184 59q69 57 70 173q-4 201 -219 204q-39 0 -64 -4q-25 -5 -42 -11l5 224h289v60z" />
    <glyph glyph-name="six" unicode="6" 
d="M279 -7q109 1 168 65q59 62 60 165q0 66 -20 109q-20 42 -53 66q-32 24 -70 34q-38 9 -74 9q-49 0 -92 -20q-44 -21 -72 -66h-2q0 54 12 107q12 52 39 93q28 43 74 67q45 24 112 23q66 -1 115 -22l6 66q-55 15 -112 16q-174 -2 -245 -111q-71 -107 -70 -270
q0 -62 10 -120q9 -59 33 -106q25 -47 69 -75q43 -29 112 -30zM290 381q147 -3 148 -163q0 -72 -39 -117q-41 -47 -118 -48q-76 1 -113 55q-37 51 -37 118q0 70 43 113q41 41 116 42z" />
    <glyph glyph-name="seven" unicode="7" 
d="M138 0h76l270 638v60h-426v-60h358z" />
    <glyph glyph-name="eight" unicode="8" 
d="M68 542q1 -68 43 -111q41 -43 96 -68q-69 -22 -114 -63q-46 -42 -47 -121q0 -48 22 -82q20 -36 53 -58q70 -46 157 -46q88 0 158 43q72 42 74 143q-1 81 -46 121q-46 40 -120 63q52 27 97 72q44 43 46 107q-2 85 -63 125q-61 38 -146 38q-68 0 -136 -37q-32 -19 -52 -50
q-22 -31 -22 -76zM441 185q-1 -71 -50 -102t-113 -30q-62 0 -111 34q-23 17 -37 41q-15 23 -15 51q0 37 15 62q14 25 37 42q23 18 52 31q29 12 59 23q25 -12 54 -24q28 -13 52 -31q26 -16 41 -40q16 -24 16 -57zM137 536q1 55 44 82q41 27 97 27q52 0 95 -26q44 -27 45 -83
q0 -27 -12 -48q-12 -23 -34 -41q-43 -35 -94 -59q-21 11 -45 24t-46 31q-21 18 -35 41q-15 22 -15 52z" />
    <glyph glyph-name="nine" unicode="9" 
d="M277 705q-107 -1 -167 -63q-61 -63 -61 -167q0 -64 22 -106q21 -42 53 -67q32 -24 70 -34q37 -11 72 -11q50 0 94 22q43 21 70 64h2q1 -111 -50 -199q-53 -87 -187 -91q-66 0 -115 22l-6 -66q55 -15 112 -16q175 2 247 112q69 108 68 269q0 63 -8 122q-9 59 -34 106
q-23 47 -68 75q-44 28 -114 28zM266 317q-148 2 -148 163q0 72 41 119q39 45 116 46q78 -1 115 -53q35 -52 35 -120q0 -70 -41 -111q-42 -44 -118 -44z" />
    <glyph glyph-name="colon" unicode=":" horiz-adv-x="278" 
d="M179 510h-81v-84h81v84zM98 0h81v84h-81v-84z" />
    <glyph glyph-name="semicolon" unicode=";" horiz-adv-x="278" 
d="M54 -134h63l79 218h-84zM179 510h-81v-84h81v84z" />
    <glyph glyph-name="less" unicode="&#x3c;" horiz-adv-x="600" 
d="M553 514l-507 -230v-62l507 -230v66l-430 195l430 195v66z" />
    <glyph glyph-name="equal" unicode="=" horiz-adv-x="600" 
d="M46 319h507v69h-507v-69zM46 118h507v69h-507v-69z" />
    <glyph glyph-name="greater" unicode="&#x3e;" horiz-adv-x="600" 
d="M47 -8l507 230v62l-507 230v-66l431 -195l-431 -195v-66z" />
    <glyph glyph-name="question" unicode="?" horiz-adv-x="500" 
d="M89 622q16 6 34 11q17 5 33 9q33 8 73 8q55 0 91 -31q34 -32 35 -88q-1 -57 -25 -95t-57 -70q-15 -16 -29 -34q-15 -18 -27 -40q-26 -42 -27 -110v-13h63v15q0 59 28 99q25 40 58 73q34 34 59 75q25 40 26 100q-1 93 -57 137q-55 42 -135 42q-74 -1 -146 -25zM182 0h81
v84h-81v-84z" />
    <glyph glyph-name="at" unicode="@" horiz-adv-x="800" 
d="M266 290q2 92 54 148q50 56 102 57q29 0 54 -18q25 -20 26 -72q-1 -67 -45 -136q-21 -32 -51 -53q-30 -22 -68 -22q-66 1 -72 96zM616 538h-63l-21 -60q-38 78 -110 77q-105 -3 -167 -86q-64 -83 -64 -185q0 -63 38 -105q37 -44 97 -45q50 0 78 20q28 19 45 41h2
q13 -61 79 -61q70 0 145 74q78 72 81 200q-3 149 -111 226q-106 76 -244 76q-180 -3 -270 -112q-91 -107 -91 -249q0 -141 91 -247q90 -111 270 -114q223 3 325 171h-61q-89 -109 -264 -111q-128 1 -210 86q-84 83 -85 216q1 133 85 216q82 83 210 84q118 0 202 -62
q85 -62 87 -180q-1 -89 -45 -150q-20 -29 -46 -46q-27 -18 -56 -18q-12 0 -16 8q-6 6 -6 15q0 22 10 49z" />
    <glyph glyph-name="A" unicode="A" horiz-adv-x="667" 
d="M13 0h67l75 187h352l75 -187h72l-277 698h-78zM333 632l151 -385h-303z" />
    <glyph glyph-name="B" unicode="B" 
d="M80 0h139q56 0 104 10q49 11 85 33q78 44 80 156q-1 70 -41 112t-107 54v2q127 26 127 159q-2 99 -67 137q-65 36 -154 35h-166v-698zM149 333h61q39 0 77 -3q37 -4 67 -18q30 -13 48 -41q17 -28 17 -75q0 -40 -17 -67t-46 -42q-29 -14 -64 -20q-35 -7 -71 -7h-72v273z
M151 638h95q23 0 50 -3q26 -4 49 -16t39 -34q14 -23 14 -62q0 -40 -16 -66q-15 -25 -41 -40q-25 -13 -54 -18q-30 -6 -59 -6h-77v245z" />
    <glyph glyph-name="C" unicode="C" horiz-adv-x="667" 
d="M565 620l4 64q-29 15 -77 21q-49 5 -83 5q-164 -2 -257 -100q-94 -99 -95 -261q0 -164 94 -261q92 -98 258 -100q36 0 83 7q46 7 77 23l-4 60q-31 -17 -75 -23q-45 -7 -81 -7q-138 1 -210 85q-73 82 -73 216q0 133 74 216q73 83 209 85q38 0 81 -5q41 -7 75 -25z" />
    <glyph glyph-name="D" unicode="D" horiz-adv-x="667" 
d="M149 638h101q120 1 201 -61q80 -65 82 -223q-8 -301 -327 -294h-57v578zM80 0h122q177 0 287 81q111 82 113 269q1 156 -80 251q-83 95 -269 97h-173v-698z" />
    <glyph glyph-name="E" unicode="E" horiz-adv-x="500" 
d="M86 0h354v60h-285v269h259v60h-259v249h273v60h-342v-698z" />
    <glyph glyph-name="F" unicode="F" horiz-adv-x="444" 
d="M77 0h69v329h251v60h-251v249h263v60h-332v-698z" />
    <glyph glyph-name="G" unicode="G" horiz-adv-x="722" 
d="M564 73q-26 -15 -69 -19q-44 -6 -79 -6q-138 1 -210 85q-73 82 -73 216q0 133 74 216q73 83 209 85q47 0 93 -6q45 -9 86 -31l8 64q-37 18 -90 26q-54 7 -97 7q-164 -2 -257 -100q-94 -99 -95 -261q0 -164 94 -261q92 -98 258 -100q113 -1 217 43v347h-231v-60h162v-245z
" />
    <glyph glyph-name="H" unicode="H" horiz-adv-x="667" 
d="M88 0h69v329h353v-329h69v698h-69v-309h-353v309h-69v-698z" />
    <glyph glyph-name="I" unicode="I" horiz-adv-x="222" 
d="M77 0h69v698h-69v-698z" />
    <glyph glyph-name="J" unicode="J" horiz-adv-x="333" 
d="M250 698h-69v-520q0 -52 -21 -90q-23 -39 -81 -40q-34 0 -65 13v-61q35 -12 72 -12q86 1 126 57q38 53 38 135v518z" />
    <glyph glyph-name="K" unicode="K" horiz-adv-x="611" 
d="M95 0h69v349l338 -349h95l-367 369l338 329h-90l-314 -313v313h-69v-698z" />
    <glyph glyph-name="L" unicode="L" horiz-adv-x="444" 
d="M80 0h349v60h-280v638h-69v-698z" />
    <glyph glyph-name="M" unicode="M" horiz-adv-x="889" 
d="M86 0h69v629h2l262 -629h59l254 629h2v-629h69v698h-99l-256 -614l-255 614h-107v-698z" />
    <glyph glyph-name="N" unicode="N" horiz-adv-x="667" 
d="M77 0h69v602h2l349 -602h93v698h-69v-614h-2l-355 614h-87v-698z" />
    <glyph glyph-name="O" unicode="O" horiz-adv-x="722" 
d="M54 349q2 -163 80 -260q77 -99 227 -101q151 2 229 101q77 97 78 260q2 147 -73 252q-76 106 -234 109q-157 -3 -232 -109q-76 -105 -75 -252zM361 650q123 -3 181 -94q57 -91 57 -207t-57 -205q-58 -94 -181 -96q-122 2 -180 96q-58 89 -58 205t58 207t180 94z" />
    <glyph glyph-name="P" unicode="P" horiz-adv-x="500" 
d="M86 0h69v302h96q97 0 159 51q63 50 64 147q-5 198 -216 198h-172v-698zM155 638h112q136 -2 138 -138q0 -46 -16 -74t-45 -42q-29 -13 -65 -17q-36 -5 -76 -5h-48v276z" />
    <glyph glyph-name="Q" unicode="Q" horiz-adv-x="722" 
d="M634 -130l-147 142q178 82 181 337q2 147 -73 252q-76 106 -234 109q-157 -3 -232 -109q-76 -105 -75 -252q2 -163 80 -260q77 -99 227 -101q30 0 57 5l124 -123h92zM361 650q123 -3 181 -94q57 -91 57 -207t-57 -205q-58 -94 -181 -96q-122 2 -180 96q-58 89 -58 205
t58 207t180 94z" />
    <glyph glyph-name="R" unicode="R" 
d="M157 638h71q36 0 68 -2q32 -3 56 -15q24 -11 38 -36t14 -68q-2 -71 -56 -100q-53 -29 -118 -28h-73v249zM88 0h69v329h57q25 0 44 -1q19 -2 34 -11q30 -16 58 -81l101 -236h76l-119 270q-7 18 -15 33q-7 15 -17 25q-18 21 -58 26v2q66 10 110 52q44 41 45 109
q-5 184 -205 181h-180v-698z" />
    <glyph glyph-name="S" unicode="S" horiz-adv-x="500" 
d="M67 89l-7 -71q56 -28 158 -30q86 0 156 46q71 47 73 151q0 39 -13 69q-14 30 -37 52q-47 46 -110 76q-30 17 -58 33q-29 15 -52 32q-22 16 -36 37t-14 46q0 34 14 58q14 23 35 36q23 15 49 21q26 5 53 5q76 0 127 -26l11 63q-36 13 -73 19q-37 4 -64 4q-94 -1 -156 -48
q-64 -49 -65 -134q1 -66 50 -109q23 -22 52 -40q28 -19 58 -36q30 -16 59 -32t51 -34q49 -35 50 -86q-1 -73 -45 -108q-45 -35 -112 -35q-95 0 -154 41z" />
    <glyph glyph-name="T" unicode="T" horiz-adv-x="500" 
d="M216 0h69v638h206v60h-481v-60h206v-638z" />
    <glyph glyph-name="U" unicode="U" horiz-adv-x="667" 
d="M587 698h-69v-454q0 -87 -46 -140q-46 -55 -138 -56q-90 1 -137 56q-47 53 -47 140v454h-69v-454q0 -76 26 -126q25 -51 63 -79q39 -28 83 -39q43 -12 81 -12q40 0 84 12q43 11 82 39q38 28 63 79q23 50 24 126v454z" />
    <glyph glyph-name="V" unicode="V" horiz-adv-x="611" 
d="M605 698h-68l-233 -629l-225 629h-73l260 -698h74z" />
    <glyph glyph-name="W" unicode="W" horiz-adv-x="944" 
d="M935 698h-66l-175 -620h-2l-176 620h-83l-179 -620h-2l-172 620h-71l200 -698h83l180 620h2l177 -620h82z" />
    <glyph glyph-name="X" unicode="X" horiz-adv-x="611" 
d="M7 0h79l221 318l213 -318h84l-254 367l235 331h-77l-198 -282l-196 282h-81l234 -331z" />
    <glyph glyph-name="Y" unicode="Y" horiz-adv-x="611" 
d="M271 0h69v296l259 402h-75l-219 -341l-213 341h-80l259 -402v-296z" />
    <glyph glyph-name="Z" unicode="Z" horiz-adv-x="500" 
d="M21 0h449v60h-374l362 578v60h-428v-60h355l-364 -578v-60z" />
    <glyph glyph-name="bracketleft" unicode="[" horiz-adv-x="278" 
d="M69 -140h162v48h-99v800h99v48h-162v-896z" />
    <glyph glyph-name="backslash" unicode="\" horiz-adv-x="278" 
d="M38 710h-69l271 -722h69z" />
    <glyph glyph-name="bracketright" unicode="]" horiz-adv-x="278" 
d="M209 756h-162v-48h99v-800h-99v-48h162v896z" />
    <glyph glyph-name="asciicircum" unicode="^" horiz-adv-x="600" 
d="M50 265h71l179 364l179 -364h71l-218 433h-64z" />
    <glyph glyph-name="underscore" unicode="_" horiz-adv-x="500" 
d="M0 -75v-50h500v50h-500z" />
    <glyph glyph-name="grave" unicode="`" horiz-adv-x="222" 
d="M75 716h-79l126 -144h46z" />
    <glyph glyph-name="a" unicode="a" horiz-adv-x="500" 
d="M372 0h62q-6 49 -5 107v225q2 192 -179 190q-79 -2 -150 -35v-61q71 43 150 42q119 0 116 -131v-26h-12q-50 0 -104 -3q-55 -5 -102 -22q-47 -16 -77 -53q-31 -37 -31 -101q-2 -39 30 -89q18 -23 52 -38q33 -16 86 -17q50 1 95 25t67 69h2v-82zM366 226q0 -20 -2 -51
q-2 -30 -17 -61q-14 -29 -45 -50q-32 -22 -87 -22q-44 0 -74 22q-32 21 -32 70q0 42 23 67q21 25 56 37q35 13 78 17q41 2 82 2h18v-31z" />
    <glyph glyph-name="b" unicode="b" 
d="M73 0h63v81h2q50 -94 159 -93q105 2 158 77q52 75 52 190q0 119 -48 192q-50 74 -162 75q-37 0 -65 -11t-48 -28q-19 -15 -30 -31q-12 -17 -16 -28h-2v326h-63v-750zM438 255q0 -36 -5 -73q-7 -38 -25 -70q-16 -30 -46 -49q-30 -21 -75 -21q-42 0 -70 21q-29 19 -47 51
q-35 68 -34 141q-1 75 33 142q18 32 47 52q29 19 71 19q45 0 75 -19q30 -18 46 -50q18 -30 25 -68q5 -38 5 -76z" />
    <glyph glyph-name="c" unicode="c" horiz-adv-x="444" 
d="M416 502q-6 3 -17 7q-12 3 -28 6q-31 7 -78 7q-114 -1 -182 -74q-69 -72 -70 -193q0 -109 61 -186q60 -79 183 -81q69 -1 131 18l-6 59q-56 -23 -115 -23q-86 1 -135 64q-50 60 -50 149q0 95 51 154q49 58 141 59q55 -1 109 -26z" />
    <glyph glyph-name="d" unicode="d" 
d="M483 750h-63v-326h-2q-6 24 -45 59q-19 17 -48 28q-28 11 -66 11q-111 -1 -161 -75q-50 -73 -49 -192q0 -115 53 -190q52 -75 157 -77q109 -1 159 93h2v-81h63v750zM118 255q0 38 7 76q8 38 24 68q18 32 47 50q28 19 73 19q42 0 72 -19q28 -20 46 -52t26 -68q7 -38 7 -74
q1 -73 -33 -141q-18 -32 -46 -51q-30 -21 -72 -21q-45 0 -73 21q-29 19 -47 49q-16 32 -24 70q-7 37 -7 73z" />
    <glyph glyph-name="e" unicode="e" horiz-adv-x="500" 
d="M421 80q-24 -14 -65 -25q-41 -13 -78 -13q-83 1 -125 58q-43 54 -43 137h349v32q0 106 -47 178q-49 73 -156 75q-98 -1 -155 -74q-59 -74 -60 -193q-1 -117 53 -190q54 -75 179 -77q76 1 148 28v64zM110 291q0 67 41 121q40 54 109 56q70 -2 101 -55q29 -52 29 -122h-280
z" />
    <glyph glyph-name="f" unicode="f" horiz-adv-x="333" 
d="M122 0h63v456h115v54h-115v44q0 25 1 52q0 26 6 49t23 39q16 14 47 14q29 0 50 -11l4 55q-9 6 -26 9q-17 1 -33 1q-48 0 -75 -18q-28 -18 -41 -49q-13 -30 -15 -68q-4 -39 -4 -80v-37h-103v-54h103v-456z" />
    <glyph glyph-name="g" unicode="g" 
d="M118 255q0 38 7 76q8 38 24 68q18 32 47 50q28 19 73 19q86 -1 119 -60q32 -58 32 -153q0 -73 -34 -135q-36 -64 -121 -66q-79 2 -113 64q-35 59 -34 137zM483 510h-63v-58h-2q-34 45 -71 59q-38 11 -88 11q-111 -1 -161 -75q-50 -73 -49 -192q0 -43 12 -87
q10 -44 35 -82q48 -83 168 -86q101 -2 155 100h2q0 -54 -4 -101q-5 -47 -23 -83q-17 -36 -53 -56q-35 -21 -96 -22q-87 2 -150 36l-5 -63q21 -6 62 -16q42 -10 92 -11q131 2 186 76q53 73 53 182v468z" />
    <glyph glyph-name="h" unicode="h" 
d="M79 0h63v273q-1 71 34 132t117 63q76 -1 100 -49q13 -22 17 -51q4 -30 4 -64v-304h63v305q1 97 -35 157q-37 59 -139 60q-56 -1 -97 -27q-41 -28 -62 -71h-2v326h-63v-750z" />
    <glyph glyph-name="i" unicode="i" horiz-adv-x="222" 
d="M79 0h63v510h-63v-510zM142 730h-63v-84h63v84z" />
    <glyph glyph-name="j" unicode="j" horiz-adv-x="222" 
d="M-28 -211q15 -4 55 -5q34 0 58 12q22 11 35 30q23 39 22 102v582h-63v-574q1 -40 -10 -68q-12 -29 -59 -30q-21 1 -38 6v-55zM142 730h-63v-84h63v84z" />
    <glyph glyph-name="k" unicode="k" horiz-adv-x="500" 
d="M79 0h63v262l252 -262h87l-279 284l249 226h-81l-228 -209v449h-63v-750z" />
    <glyph glyph-name="l" unicode="l" horiz-adv-x="222" 
d="M79 0h63v750h-63v-750z" />
    <glyph glyph-name="m" unicode="m" horiz-adv-x="833" 
d="M758 0v351q0 77 -41 123q-42 47 -120 48q-61 -1 -102 -31q-42 -31 -61 -77h-2q-6 34 -21 56q-15 21 -35 32q-20 12 -40 16q-21 4 -39 4q-40 0 -67 -10q-27 -11 -45 -26t-28 -32q-12 -17 -19 -31l-2 1v86h-61q4 -61 4 -120v-390h63v282q1 96 43 142q41 44 94 44
q31 0 52 -9q21 -10 33 -28q13 -17 19 -40q4 -24 4 -52v-339h63v282q1 96 43 142q41 44 94 44q31 0 52 -9q21 -10 33 -28q13 -17 19 -40q4 -24 4 -52v-339h63z" />
    <glyph glyph-name="n" unicode="n" 
d="M79 0h63v282q0 34 8 67q7 32 25 59q34 58 118 60q65 -1 94 -42q27 -43 27 -116v-310h63v326q0 86 -39 140q-41 55 -135 56q-39 0 -67 -9t-47 -25q-18 -15 -30 -33t-21 -36h-2v91h-61q4 -61 4 -120v-390z" />
    <glyph glyph-name="o" unicode="o" 
d="M40 255q0 -107 58 -185q58 -80 180 -82q124 2 182 82q56 78 56 185q0 109 -56 186q-58 79 -182 81q-122 -2 -180 -81q-58 -77 -58 -186zM109 255q0 91 44 152q42 60 125 61q83 -1 127 -61q42 -61 42 -152t-42 -150q-44 -62 -127 -63q-83 1 -125 63q-44 59 -44 150z" />
    <glyph glyph-name="p" unicode="p" 
d="M73 -210h63v297h2q43 -99 159 -99q105 2 158 77q52 75 52 190q0 119 -48 192q-50 74 -162 75q-40 0 -68 -11q-28 -13 -47 -30t-30 -34q-12 -19 -18 -30h-2l4 93h-63v-720zM438 255q0 -36 -5 -73q-7 -38 -25 -70q-16 -30 -46 -49q-30 -21 -75 -21q-42 0 -70 21
q-29 19 -47 51q-35 68 -34 141q0 36 9 74q7 36 25 68t47 52q28 19 70 19q45 0 75 -19q30 -18 46 -50q18 -30 25 -68q5 -38 5 -76z" />
    <glyph glyph-name="q" unicode="q" 
d="M483 510h-63v-83h-2q-4 8 -14 23t-29 32q-18 17 -46 29q-30 11 -70 11q-111 -1 -161 -75q-50 -73 -49 -192q0 -115 53 -190q52 -75 157 -77q116 0 159 99h2v-297h63v720zM118 255q0 38 7 76q8 38 24 68q18 32 47 50q28 19 73 19q42 0 72 -19q28 -20 46 -52t26 -68
q7 -38 7 -74q1 -73 -33 -141q-18 -32 -46 -51q-30 -21 -72 -21q-45 0 -73 21q-29 19 -47 49q-16 32 -24 70q-7 37 -7 73z" />
    <glyph glyph-name="r" unicode="r" horiz-adv-x="333" 
d="M79 0h63v252q0 35 7 72q6 35 20 65q15 31 39 49q24 17 61 18q25 0 46 -6v66q-19 5 -44 6q-48 -1 -80 -33q-33 -32 -51 -77h-2v98h-63q4 -43 4 -114v-396z" />
    <glyph glyph-name="s" unicode="s" horiz-adv-x="389" 
d="M40 74l-6 -62q69 -24 143 -24q63 0 119 33q26 17 43 45q16 27 16 67q-1 62 -38 97t-87 56q-22 12 -45 22q-23 11 -41 21q-18 11 -29 24q-11 14 -11 30q0 26 9 42q8 16 23 25q29 18 78 18q58 -1 113 -24l6 55q-34 13 -69 19q-35 4 -57 4q-65 0 -114 -31q-51 -32 -52 -108
q0 -27 11 -47q11 -21 28 -37q19 -15 40 -27t44 -23q49 -20 85 -45q36 -26 37 -71q-1 -43 -33 -66q-33 -25 -80 -25q-75 1 -133 32z" />
    <glyph glyph-name="t" unicode="t" horiz-adv-x="333" 
d="M299 510h-116v145l-63 -22v-123h-100v-54h100v-298q0 -35 3 -65t13 -54q12 -23 35 -37q24 -14 65 -14q25 0 46 5q20 5 31 9l-4 52q-24 -12 -58 -12q-37 0 -52 25q-16 24 -16 59v330h116v54z" />
    <glyph glyph-name="u" unicode="u" 
d="M477 510h-63v-282q0 -32 -7 -64t-25 -60q-16 -27 -46 -44q-30 -18 -73 -18q-64 0 -92 44q-29 41 -29 114v310h-63v-326q-1 -86 40 -140q41 -55 134 -56q40 0 68 11q28 9 47 24q19 16 31 34q12 17 19 34h2v-91h61q-5 62 -4 120v390z" />
    <glyph glyph-name="v" unicode="v" horiz-adv-x="444" 
d="M435 510h-66l-148 -441h-2l-141 441h-69l173 -510h74z" />
    <glyph glyph-name="w" unicode="w" horiz-adv-x="778" 
d="M771 510h-63l-141 -441h-2l-135 441h-76l-142 -441h-2l-134 441h-69l164 -510h76l139 441h2l139 -441h76z" />
    <glyph glyph-name="x" unicode="x" horiz-adv-x="444" 
d="M8 0h73l143 220l134 -220h78l-175 270l158 240h-72l-123 -190l-121 190h-78l162 -240z" />
    <glyph glyph-name="y" unicode="y" horiz-adv-x="444" 
d="M78 510h-69l181 -516l-13 -45q-13 -50 -33 -79q-20 -31 -59 -32q-16 0 -27 3q-11 2 -20 5l-6 -54q33 -8 68 -8q27 1 48 13q21 11 36 31q30 41 47 96l204 586h-66l-147 -425h-1z" />
    <glyph glyph-name="z" unicode="z" horiz-adv-x="444" 
d="M32 0h380v54h-307l307 402v54h-368v-54h295l-307 -403v-53z" />
    <glyph glyph-name="braceleft" unicode="{" horiz-adv-x="278" 
d="M273 756h-55q-43 0 -71 -31q-31 -31 -31 -90v-168q0 -57 -18 -94q-19 -40 -60 -41v-48q41 -1 60 -39q18 -37 18 -93v-170q1 -57 30 -89q28 -32 71 -33h56v48h-50q-24 1 -34 30q-10 27 -10 64v162q0 38 -9 65q-10 27 -24 43q-13 16 -27 25t-24 10v2q21 4 51 37
q14 16 24 43q9 25 9 61v165q0 38 10 65t34 28h50v48z" />
    <glyph glyph-name="bar" unicode="|" horiz-adv-x="222" 
d="M77 750v-1000h69v1000h-69z" />
    <glyph glyph-name="braceright" unicode="}" horiz-adv-x="278" 
d="M5 -140h55q45 0 73 32t29 89v168q0 57 19 96q19 38 59 39v48q-40 1 -59 39t-19 93v170q-1 59 -29 91q-28 31 -72 31h-56v-48h50q24 -1 34 -28t10 -66v-162q0 -37 11 -63q9 -27 23 -43t28 -25t22 -12v-2q-20 -4 -50 -36q-14 -16 -23 -42q-11 -25 -11 -63v-165
q0 -37 -10 -64q-10 -28 -34 -29h-50v-48z" />
    <glyph glyph-name="asciitilde" unicode="~" horiz-adv-x="600" 
d="M495 324q-16 -28 -37 -49q-21 -23 -51 -24q-20 0 -44 12q-26 11 -55 25q-27 14 -56 25q-30 11 -58 11q-49 -1 -79 -29q-30 -29 -46 -62l36 -51q18 29 38 51q21 21 50 22q41 -2 99 -36q29 -14 58 -25q29 -12 56 -12q25 0 46 10q19 8 34 21q29 27 45 60z" />
    <glyph glyph-name="Euro" 
d="M566 685l-13 -63q-50 29 -130 29q-96 0 -160.5 -57t-86.5 -152h341l-11 -48h-339q-5 -44 0 -90h321l-10 -48h-302q22 -96 86 -152t160 -56q77 0 131 27l6 -64q-52 -23 -137 -23q-126 0 -210 71.5t-108 196.5h-90l11 48h73q-4 46 0 90h-84l11 48h80q25 123 110 195.5
t209 72.5q85 0 142 -25z" />
    <glyph glyph-name="Euro" unicode="&#x20ac;" 
d="M566 685l-13 -63q-50 29 -130 29q-96 0 -160.5 -57t-86.5 -152h341l-11 -48h-339q-5 -44 0 -90h321l-10 -48h-302q22 -96 86 -152t160 -56q77 0 131 27l6 -64q-52 -23 -137 -23q-126 0 -210 71.5t-108 196.5h-90l11 48h73q-4 46 0 90h-84l11 48h80q25 123 110 195.5
t209 72.5q85 0 142 -25z" />
    <glyph glyph-name="quotesinglbase" unicode="&#x201a;" horiz-adv-x="278" 
d="M72 -134h57l77 218h-75z" />
    <glyph glyph-name="florin" unicode="&#x192;" 
d="M458 419h-115l18 92q18 82 43 112q12 16 27 23q15 5 33 5q30 -1 56 -13l13 50q-30 16 -64 17q-45 0 -75 -16q-31 -17 -51 -44q-19 -27 -30 -62q-12 -35 -19 -73l-17 -91h-122v-54h111l-67 -352q-12 -77 -36 -125q-24 -49 -79 -50q-22 1 -43 9l-16 -53q24 -9 58 -10
q82 0 120 53t58 165l71 363h126v54z" />
    <glyph glyph-name="quotedblbase" unicode="&#x201e;" 
d="M123 -134h58l76 218h-75zM299 -134h57l77 218h-75z" />
    <glyph glyph-name="ellipsis" unicode="&#x2026;" horiz-adv-x="1000" 
d="M127 0h81v84h-81v-84zM460 0h81v84h-81v-84zM793 0h81v84h-81v-84z" />
    <glyph glyph-name="dagger" unicode="&#x2020;" 
d="M246 0h63v456h176v54h-176v188h-63v-188h-175v-54h175v-456z" />
    <glyph glyph-name="daggerdbl" unicode="&#x2021;" 
d="M71 188h175v-188h63v188h176v54h-176v214h176v54h-176v188h-63v-188h-175v-54h175v-214h-175v-54z" />
    <glyph glyph-name="circumflex" unicode="&#x2c6;" horiz-adv-x="222" 
d="M-23 572h46l88 102l88 -102h46l-93 144h-82z" />
    <glyph glyph-name="perthousand" unicode="&#x2030;" horiz-adv-x="1000" 
d="M42 528q0 -34 7 -66q6 -31 20 -57q27 -53 105 -54q40 0 67 16q25 14 40 38q26 50 25 123q1 73 -25 125q-28 51 -107 52q-78 -1 -105 -52q-14 -24 -20 -56q-7 -33 -7 -69zM105 528q-1 41 9 84q7 20 22 33q13 12 38 12q27 0 41 -12q15 -13 20 -33q6 -20 7 -41q1 -23 1 -43
q1 -41 -8 -83q-5 -20 -20 -32q-14 -14 -41 -14q-25 0 -38 14q-15 12 -22 32q-6 20 -7 43q-2 22 -2 40zM380 170q0 -32 6 -62q5 -32 18 -58q15 -26 41 -41q25 -15 67 -16q42 1 69 16q26 15 39 41q15 26 20 58q4 30 4 62q0 33 -4 65q-5 30 -20 56q-13 26 -39 41q-27 15 -69 15
t-67 -15q-26 -15 -41 -41q-13 -26 -18 -56q-6 -32 -6 -65zM443 170q-1 41 9 84q7 20 22 33q13 12 38 12q27 0 41 -12q15 -13 20 -33q6 -20 7 -41q1 -23 1 -43q1 -41 -8 -83q-5 -20 -20 -32q-14 -14 -41 -14q-25 0 -38 14q-15 12 -22 32q-6 20 -7 43q-2 22 -2 40zM694 170
q0 -32 6 -62q5 -32 18 -58q15 -26 41 -41q25 -15 67 -16q42 1 69 16q26 15 39 41q15 26 20 58q4 30 4 62q0 33 -4 65q-5 30 -20 56q-13 26 -39 41q-27 15 -69 15t-67 -15q-26 -15 -41 -41q-13 -26 -18 -56q-6 -32 -6 -65zM757 170q-1 41 9 84q7 20 22 33q13 12 38 12
q27 0 41 -12q15 -13 20 -33q6 -20 7 -41q1 -23 1 -43q1 -41 -8 -83q-5 -20 -20 -32q-14 -14 -41 -14q-25 0 -38 14q-15 12 -22 32q-6 20 -7 43q-2 22 -2 40zM108 -22h58l413 742h-58z" />
    <glyph glyph-name="Scaron" unicode="&#x160;" horiz-adv-x="500" 
d="M67 89l-7 -71q56 -28 158 -30q86 0 156 46q71 47 73 151q0 39 -13 69q-14 30 -37 52q-47 46 -110 76q-30 17 -58 33q-29 15 -52 32q-22 16 -36 37t-14 46q0 34 14 58q14 23 35 36q23 15 49 21q26 5 53 5q76 0 127 -26l11 63q-36 13 -73 19q-37 4 -64 4q-94 -1 -156 -48
q-64 -49 -65 -134q1 -66 50 -109q23 -22 52 -40q28 -19 58 -36q30 -16 59 -32t51 -34q49 -35 50 -86q-1 -73 -45 -108q-45 -35 -112 -35q-95 0 -154 41zM386 870h-46l-88 -102l-88 102h-46l93 -144h82z" />
    <glyph glyph-name="guilsinglleft" unicode="&#x2039;" horiz-adv-x="278" 
d="M238 474h-59l-140 -205l140 -205h59l-133 205z" />
    <glyph glyph-name="OE" unicode="&#x152;" horiz-adv-x="889" 
d="M817 698h-318q-84 4 -168 7q-147 -3 -212 -112q-66 -106 -65 -244q-1 -136 65 -243q65 -110 212 -113q84 5 168 7h330v60h-283v269h257v60h-257v249h271v60zM477 60q-52 -6 -127 -6q-13 -1 -49 5t-76 32q-19 15 -37 37q-18 21 -33 52q-31 61 -32 169q0 56 10 99
q8 42 22 73q30 61 70 87q20 13 40 22q20 7 36 10q36 4 49 4q75 -1 127 -6v-578z" />
    <glyph glyph-name="quoteleft" unicode="&#x2018;" horiz-adv-x="278" 
d="M206 698h-57l-77 -218h75z" />
    <glyph glyph-name="quoteright" unicode="&#x2019;" horiz-adv-x="278" 
d="M72 480h57l77 218h-75z" />
    <glyph glyph-name="quotedblleft" unicode="&#x201c;" 
d="M257 698h-57l-77 -218h75zM433 698h-57l-77 -218h75z" />
    <glyph glyph-name="quotedblright" unicode="&#x201d;" 
d="M299 480h57l77 218h-75zM123 480h57l77 218h-75z" />
    <glyph glyph-name="bullet" unicode="&#x2022;" horiz-adv-x="500" 
d="M76 349q1 -74 52 -122q48 -51 122 -52q74 1 124 52q50 48 51 122q-1 74 -51 124t-124 51q-74 -1 -122 -51q-51 -50 -52 -124z" />
    <glyph glyph-name="endash" unicode="&#x2013;" horiz-adv-x="500" 
d="M0 242h500v54h-500v-54z" />
    <glyph glyph-name="emdash" unicode="&#x2014;" horiz-adv-x="1000" 
d="M0 242h1000v54h-1000v-54z" />
    <glyph glyph-name="tilde" unicode="&#x2dc;" horiz-adv-x="222" 
d="M9 595q7 18 17 27q8 9 27 9q20 -1 47 -12q27 -12 62 -13q21 -1 48 17q26 18 35 71h-37q-5 -16 -18 -25q-14 -9 -31 -9q-14 1 -44 13q-30 11 -61 12q-34 -1 -54 -28q-19 -27 -27 -62h36z" />
    <glyph glyph-name="trademark" unicode="&#x2122;" horiz-adv-x="990" 
d="M195 284h63v366h131v48h-325v-48h131v-366zM478 284h63v360h2l137 -360h43l138 360h2v-360h63v414h-102l-122 -319l-122 319h-102v-414z" />
    <glyph glyph-name="scaron" unicode="&#x161;" horiz-adv-x="389" 
d="M40 74l-6 -62q69 -24 143 -24q63 0 119 33q26 17 43 45q16 27 16 67q-1 62 -38 97t-87 56q-22 12 -45 22q-23 11 -41 21q-18 11 -29 24q-11 14 -11 30q0 26 9 42q8 16 23 25q29 18 78 18q58 -1 113 -24l6 55q-34 13 -69 19q-35 4 -57 4q-65 0 -114 -31q-51 -32 -52 -108
q0 -27 11 -47q11 -21 28 -37q19 -15 40 -27t44 -23q49 -20 85 -45q36 -26 37 -71q-1 -43 -33 -66q-33 -25 -80 -25q-75 1 -133 32zM329 710h-46l-88 -102l-88 102h-46l93 -144h82z" />
    <glyph glyph-name="guilsinglright" unicode="&#x203a;" horiz-adv-x="278" 
d="M40 64h59l140 205l-140 205h-59l133 -205z" />
    <glyph glyph-name="oe" unicode="&#x153;" horiz-adv-x="889" 
d="M503 291q0 80 40 128q38 48 110 49q66 -2 99 -55q31 -52 31 -122h-280zM852 237v34q0 101 -47 175q-49 74 -156 76q-128 -1 -183 -110q-58 112 -192 110q-122 -2 -180 -81q-58 -77 -58 -186q0 -107 58 -185q58 -80 180 -82q142 3 196 104q49 -102 196 -104q76 1 148 28
v64q-24 -14 -65 -25q-41 -13 -78 -13q-83 1 -125 58q-43 54 -43 137h349zM105 255q0 91 44 152q42 60 125 61q48 0 79 -17q31 -18 49 -48q33 -63 32 -148q1 -89 -32 -149q-18 -29 -49 -46q-31 -18 -79 -18q-83 1 -125 63q-44 59 -44 150z" />
    <glyph glyph-name="Ydieresis" unicode="&#x178;" horiz-adv-x="611" 
d="M271 0h69v296l259 402h-75l-219 -341l-213 341h-80l259 -402v-296zM360 758h75v84h-75v-84zM189 758h75v84h-75v-84z" />
    <glyph glyph-name="nonbreakingspace" unicode="&#xa0;" horiz-adv-x="278" 
 />
    <glyph glyph-name="exclamdown" unicode="&#xa1;" horiz-adv-x="389" 
d="M154 -188h81l-12 529h-57zM235 510h-81v-84h81v84z" />
    <glyph glyph-name="cent" unicode="&#xa2;" 
d="M239 83q-70 62 -71 172q0 95 51 154q49 58 141 59q3 0 7 -1zM407 588l-22 -68q-16 2 -34 2q-114 -1 -182 -74q-69 -72 -70 -193q0 -76 30 -139t89 -97l-37 -110h47l31 93q39 -14 84 -14q69 -1 131 18l-6 59q-56 -23 -115 -23q-40 0 -75 17l134 402q15 -3 30 -8
q14 -5 27 -11l5 60q-13 5 -45 12l25 74h-47z" />
    <glyph glyph-name="sterling" unicode="&#xa3;" 
d="M67 0h418v60h-246v287h166v54h-166v43q0 35 5 72q6 35 20 64q16 29 46 48q30 17 79 17q38 0 63 -7q26 -6 39 -16l10 62q-30 19 -112 21q-129 -2 -175 -79q-12 -18 -19 -38q-9 -21 -15 -44q-1 -10 -3 -22q-3 -12 -4 -24t-1 -24q-2 -12 -2 -24v-49h-91v-54h91v-287h-103
v-60z" />
    <glyph glyph-name="currency" unicode="&#xa4;" 
d="M27 141l43 -43l57 56q64 -53 151 -53q89 0 152 53l54 -56l45 43l-54 55q51 67 51 153q0 85 -51 151l54 55l-45 45l-54 -56q-65 52 -152 53q-84 -1 -151 -53l-57 56l-43 -45l57 -55q-28 -32 -41 -71t-13 -80q0 -85 54 -153zM278 161q-77 -1 -127 52q-51 53 -52 136
q1 76 52 130q49 53 127 58q81 -1 130 -56q48 -55 49 -132q-1 -77 -49 -131q-49 -56 -130 -57z" />
    <glyph glyph-name="yen" unicode="&#xa5;" 
d="M244 0h69v175h144v48h-144v75l3 6h141v48h-114l194 346h-71l-188 -337l-183 337h-76l195 -346h-114v-48h141l3 -6v-75h-144v-48h144v-175z" />
    <glyph glyph-name="brokenbar" unicode="&#xa6;" horiz-adv-x="222" 
d="M77 675v-350h69v350h-69zM77 175v-350h69v350h-69z" />
    <glyph glyph-name="section" unicode="&#xa7;" 
d="M421 688q-23 8 -60 15q-38 7 -85 7q-62 0 -119 -33q-60 -35 -62 -117q0 -39 23 -64q21 -27 52 -45l7 -4l-9 -8q-30 -25 -54 -56q-25 -33 -25 -73q1 -64 49 -99q46 -36 106 -57q61 -21 107 -45q21 -12 35 -29q12 -17 12 -41q-1 -54 -44 -79q-42 -26 -90 -26q-85 0 -162 33
l-7 -59q82 -28 169 -28q26 0 61 8q34 7 66 25t54 49t22 79q-1 42 -23 72t-55 46q31 29 53 60q21 31 22 76q-1 63 -46 98q-44 35 -104 56q-58 22 -102 49q-47 26 -48 73q0 24 15 40q13 17 33 27q43 18 83 18q35 0 69 -8q33 -8 50 -18zM313 382q18 -7 35 -16q15 -8 27 -20
q23 -21 24 -63q-1 -47 -38 -79l-21 -21l-117 51q-30 13 -47 34q-18 20 -18 46q1 40 24 69q22 28 37 36l7 4z" />
    <glyph glyph-name="dieresis" unicode="&#xa8;" horiz-adv-x="222" 
d="M159 604h75v84h-75v-84zM-12 604h75v84h-75v-84z" />
    <glyph glyph-name="copyright" unicode="&#xa9;" horiz-adv-x="800" 
d="M108 349q1 134 84 219q81 86 209 88q127 -2 208 -88q82 -85 83 -219q-1 -132 -83 -218q-81 -88 -208 -89q-128 1 -209 89q-83 86 -84 218zM530 280q-8 -45 -38 -73q-30 -29 -79 -29q-68 1 -107 52q-40 49 -40 120q0 77 38 123q36 47 107 48q49 0 79 -26q31 -26 40 -71h60
q-12 75 -60 113q-49 38 -120 38q-100 -1 -156 -64q-57 -62 -57 -162q1 -97 60 -159q57 -65 156 -66q140 3 178 156h-61zM39 349q2 -152 107 -254q102 -105 254 -107q154 2 256 107q103 102 105 254q-2 154 -105 256q-102 103 -256 105q-152 -2 -254 -105
q-105 -102 -107 -256z" />
    <glyph glyph-name="ordfeminine" unicode="&#xaa;" horiz-adv-x="325" 
d="M242 396h50q-4 31 -3 65v135q1 113 -116 114q-31 0 -57 -6q-27 -6 -47 -14v-46q46 24 98 24q25 0 40 -5q15 -6 21 -17q8 -9 9 -20q1 -12 1 -21v-15h-8q-33 0 -68 -2q-36 -3 -67 -13t-50 -33q-21 -23 -21 -63q-1 -41 27 -65q26 -26 88 -26q34 0 62 16q28 14 39 40h2v-48z
M238 530v-28q-1 -17 -10 -34t-28 -28q-20 -11 -56 -10q-29 0 -48 13q-21 13 -21 41q1 39 51 53q23 7 49 10q26 1 51 1h12v-18z" />
    <glyph glyph-name="guillemotleft" unicode="&#xab;" 
d="M290 474h-59l-140 -205l140 -205h59l-133 205zM465 474h-59l-140 -205l140 -205h59l-133 205z" />
    <glyph glyph-name="logicalnot" unicode="&#xac;" horiz-adv-x="600" 
d="M46 319h438v-205h69v274h-507v-69z" />
    <glyph glyph-name="uni00AD" unicode="&#xad;" horiz-adv-x="333" 
d="M41 235h251v69h-251v-69z" />
    <glyph glyph-name="registered" unicode="&#xae;" horiz-adv-x="800" 
d="M39 349q2 -152 107 -254q102 -105 254 -107q154 2 256 107q103 102 105 254q-2 154 -105 256q-102 103 -256 105q-152 -2 -254 -105q-105 -102 -107 -256zM108 349q1 134 84 219q81 86 209 88q127 -2 208 -88q82 -85 83 -219q-1 -132 -83 -218q-81 -88 -208 -89
q-128 1 -209 89q-83 86 -84 218zM262 138h69v187h58l118 -187h73l-120 187q51 0 80 34q29 31 29 83q0 119 -145 119h-162v-423zM331 507h82q34 0 61 -12q25 -14 26 -50q0 -39 -23 -53t-64 -13h-82v128z" />
    <glyph glyph-name="macron" unicode="&#xaf;" horiz-adv-x="222" 
d="M-11 614h244v54h-244v-54z" />
    <glyph glyph-name="degree" unicode="&#xb0;" horiz-adv-x="400" 
d="M200 657q48 0 77 -26q29 -27 30 -75q-1 -43 -32 -71q-31 -30 -75 -30q-42 0 -74 30q-32 28 -33 71q0 48 31 75q30 26 76 26zM200 705q-65 -1 -110 -41q-47 -40 -48 -108q1 -67 48 -107q45 -41 110 -42q67 1 112 42q45 40 46 107q-1 68 -46 108t-112 41z" />
    <glyph glyph-name="plusminus" unicode="&#xb1;" horiz-adv-x="600" 
d="M46 269h219v-169h69v169h219v69h-219v169h-69v-169h-219v-69zM46 0h507v69h-507v-69z" />
    <glyph glyph-name="twosuperior" unicode="&#xb2;" horiz-adv-x="361" 
d="M45 284h272v48h-197l74 65q42 37 80 85q38 46 39 107q-1 62 -38 90q-39 26 -97 26q-61 -1 -117 -28l8 -50q51 29 109 30q34 0 56 -18t22 -53q-1 -39 -31 -82q-31 -43 -74 -84l-106 -95v-41z" />
    <glyph glyph-name="threesuperior" unicode="&#xb3;" horiz-adv-x="361" 
d="M99 476h28q39 1 87 -9q23 -6 37 -21q14 -16 13 -44q-1 -36 -32 -56q-31 -21 -73 -21q-61 -1 -120 21l-5 -52q55 -18 120 -17q62 0 113 29q52 28 54 90q0 43 -24 73q-25 28 -73 31v2q43 9 69 35t26 63q0 29 -12 50q-12 20 -34 32q-45 23 -99 23q-26 0 -59 -4
q-34 -4 -60 -15l4 -52q46 22 103 23q29 1 63 -9q35 -11 37 -52q0 -23 -14 -38q-15 -15 -37 -22q-21 -7 -44 -9q-23 -3 -40 -3h-28v-48z" />
    <glyph glyph-name="acute" unicode="&#xb4;" horiz-adv-x="222" 
d="M53 572h46l126 144h-79z" />
    <glyph glyph-name="mu" unicode="&#xb5;" 
d="M79 -210h63v227q52 -29 111 -29q40 0 68 11q28 9 47 24q19 16 31 34q12 17 19 34h2v-91h61q-5 62 -4 120v390h-63v-282q0 -32 -7 -64t-25 -60q-16 -27 -46 -44q-30 -18 -73 -18q-64 0 -92 44q-29 41 -29 114v310h-63v-720z" />
    <glyph glyph-name="paragraph" unicode="&#xb6;" horiz-adv-x="600" 
d="M256 -108h63v752h134v-752h63v806h-240q-224 1 -228 -192q1 -80 59 -131q57 -54 149 -55v-428z" />
    <glyph glyph-name="periodcentered" unicode="&#xb7;" horiz-adv-x="278" 
d="M92 311q0 -23 16 -35q15 -12 32 -12q18 0 32 12t15 35q-1 24 -15 36t-32 12q-17 0 -32 -12q-16 -12 -16 -36z" />
    <glyph glyph-name="periodcentered" unicode="&#x2219;" horiz-adv-x="278" 
d="M92 311q0 -23 16 -35q15 -12 32 -12q18 0 32 12t15 35q-1 24 -15 36t-32 12q-17 0 -32 -12q-16 -12 -16 -36z" />
    <glyph glyph-name="cedilla" unicode="&#xb8;" horiz-adv-x="222" 
d="M75 -85q21 4 42 4q37 0 38 -37q-2 -37 -52 -37q-28 1 -53 12q-25 10 -36 17l-7 -37q8 -2 38 -11q30 -10 63 -11q37 0 73 13q35 14 37 56q-1 32 -21 49q-21 16 -52 16q-18 0 -33 -3l19 54h-27z" />
    <glyph glyph-name="onesuperior" unicode="&#xb9;" horiz-adv-x="361" 
d="M232 705h-52l-103 -80l22 -33l76 58v-366h57v421z" />
    <glyph glyph-name="ordmasculine" unicode="&#xba;" horiz-adv-x="361" 
d="M23 548q0 -65 38 -111q38 -47 120 -49q82 4 121 51q36 46 36 109q0 69 -36 115q-39 45 -121 47q-82 -1 -120 -48t-38 -114zM74 548q0 50 29 84q28 35 78 36q52 -1 79 -36q27 -34 27 -84q0 -52 -27 -84q-27 -34 -79 -34q-50 0 -78 34q-29 32 -29 84z" />
    <glyph glyph-name="guillemotright" unicode="&#xbb;" 
d="M266 64h59l140 205l-140 205h-59l133 -205zM91 64h59l140 205l-140 205h-59l133 -205z" />
    <glyph glyph-name="onequarter" unicode="&#xbc;" horiz-adv-x="834" 
d="M130 -22h57l443 742h-57zM226 705h-52l-103 -80l22 -33l76 58v-366h57v421zM650 139h-162l160 213h2v-213zM431 91h219v-91h57v91h56v48h-56v282h-68l-208 -281v-49z" />
    <glyph glyph-name="onehalf" unicode="&#xbd;" horiz-adv-x="834" 
d="M117 -22h57l443 742h-57zM214 705h-52l-103 -80l22 -33l76 58v-366h57v421zM503 0h272v48h-197l74 65q42 37 80 85q38 46 39 107q-1 62 -38 90q-39 26 -97 26q-61 -1 -117 -28l8 -50q51 29 109 30q34 0 56 -18t22 -53q-1 -39 -31 -82q-31 -43 -74 -84l-106 -95v-41z" />
    <glyph glyph-name="threequarters" unicode="&#xbe;" horiz-adv-x="834" 
d="M207 -22h58l443 742h-58zM669 139h-162l160 213h2v-213zM450 91h219v-91h57v91h56v48h-56v282h-68l-208 -281v-49zM118 476h28q39 1 87 -9q23 -6 37 -21q14 -16 13 -44q-1 -36 -32 -56q-31 -21 -73 -21q-61 -1 -120 21l-5 -52q55 -18 120 -17q62 0 113 29q52 28 54 90
q0 43 -24 73q-25 28 -73 31v2q43 9 69 35t26 63q0 29 -12 50q-12 20 -34 32q-45 23 -99 23q-26 0 -59 -4q-34 -4 -60 -15l4 -52q46 22 103 23q29 1 63 -9q35 -11 37 -52q0 -23 -14 -38q-15 -15 -37 -22q-21 -7 -44 -9q-23 -3 -40 -3h-28v-48z" />
    <glyph glyph-name="questiondown" unicode="&#xbf;" horiz-adv-x="500" 
d="M411 -112q-31 -11 -65 -19t-75 -9q-55 1 -89 33q-37 30 -37 86q1 59 27 97q12 19 27 37q14 17 29 33q33 32 57 74t25 108v13h-63v-15q-1 -59 -26 -98t-59 -73q-33 -33 -58 -73q-28 -41 -28 -103q1 -92 58 -135q55 -44 134 -44q75 1 146 25zM318 510h-81v-84h81v84z" />
    <glyph glyph-name="Agrave" unicode="&#xc0;" horiz-adv-x="667" 
d="M13 0h67l75 187h352l75 -187h72l-277 698h-78zM333 632l151 -385h-303zM304 870h-79l126 -144h46z" />
    <glyph glyph-name="Aacute" unicode="&#xc1;" horiz-adv-x="667" 
d="M13 0h67l75 187h352l75 -187h72l-277 698h-78zM333 632l151 -385h-303zM284 726h46l126 144h-79z" />
    <glyph glyph-name="Acircumflex" unicode="&#xc2;" horiz-adv-x="667" 
d="M13 0h67l75 187h352l75 -187h72l-277 698h-78zM333 632l151 -385h-303zM206 726h46l88 102l88 -102h46l-93 144h-82z" />
    <glyph glyph-name="Atilde" unicode="&#xc3;" horiz-adv-x="667" 
d="M13 0h67l75 187h352l75 -187h72l-277 698h-78zM333 632l151 -385h-303zM238 749q7 18 17 27q8 9 27 9q20 -1 47 -12q27 -12 62 -13q21 -1 48 17q26 18 35 71h-37q-5 -16 -18 -25q-14 -9 -31 -9q-14 1 -44 13q-30 11 -61 12q-34 -1 -54 -28q-19 -27 -27 -62h36z" />
    <glyph glyph-name="Adieresis" unicode="&#xc4;" horiz-adv-x="667" 
d="M13 0h67l75 187h352l75 -187h72l-277 698h-78zM333 632l151 -385h-303zM388 758h75v84h-75v-84zM217 758h75v84h-75v-84z" />
    <glyph glyph-name="Aring" unicode="&#xc5;" horiz-adv-x="667" 
d="M13 0h67l75 187h352l75 -187h72l-277 698h-78zM333 632l151 -385h-303zM245 816q0 -41 28 -67q27 -28 68 -28t69 28q26 26 27 67q-1 42 -27 68q-28 26 -69 27q-41 -1 -68 -27q-28 -26 -28 -68zM281 816q0 26 18 43q17 16 42 16q26 0 43 -16q17 -17 17 -43t-17 -41
q-17 -18 -43 -18q-25 0 -42 18q-18 15 -18 41z" />
    <glyph glyph-name="AE" unicode="&#xc6;" horiz-adv-x="889" 
d="M477 247h-248l246 397h2v-397zM0 0h76l116 187h286v-187h351v60h-283v269h257v60h-257v249h271v60h-381z" />
    <glyph glyph-name="Ccedilla" unicode="&#xc7;" horiz-adv-x="667" 
d="M565 620l4 64q-29 15 -77 21q-49 5 -83 5q-164 -2 -257 -100q-94 -99 -95 -261q0 -153 83 -248q80 -96 228 -110l-25 -76q21 4 42 4q37 0 38 -37q-2 -37 -52 -37q-28 1 -53 12q-25 10 -36 17l-7 -37q8 -2 38 -11q30 -10 63 -11q37 0 73 13q35 14 37 56q-1 32 -21 49
q-21 16 -52 16q-18 0 -33 -3l15 43q6 -1 14 -1q36 0 83 7q46 7 77 23l-4 60q-31 -17 -75 -23q-45 -7 -81 -7q-138 1 -210 85q-73 82 -73 216q0 133 74 216q73 83 209 85q38 0 81 -5q41 -7 75 -25z" />
    <glyph glyph-name="Egrave" unicode="&#xc8;" horiz-adv-x="500" 
d="M86 0h354v60h-285v269h259v60h-259v249h273v60h-342v-698zM215 870h-79l126 -144h46z" />
    <glyph glyph-name="Eacute" unicode="&#xc9;" horiz-adv-x="500" 
d="M86 0h354v60h-285v269h259v60h-259v249h273v60h-342v-698zM195 726h46l126 144h-79z" />
    <glyph glyph-name="Ecircumflex" unicode="&#xca;" horiz-adv-x="500" 
d="M86 0h354v60h-285v269h259v60h-259v249h273v60h-342v-698zM116 726h46l88 102l88 -102h46l-93 144h-82z" />
    <glyph glyph-name="Edieresis" unicode="&#xcb;" horiz-adv-x="500" 
d="M86 0h354v60h-285v269h259v60h-259v249h273v60h-342v-698zM300 758h75v84h-75v-84zM129 758h75v84h-75v-84z" />
    <glyph glyph-name="Igrave" unicode="&#xcc;" horiz-adv-x="222" 
d="M77 0h69v698h-69v-698zM75 870h-79l126 -144h46z" />
    <glyph glyph-name="Iacute" unicode="&#xcd;" horiz-adv-x="222" 
d="M77 0h69v698h-69v-698zM53 726h46l126 144h-79z" />
    <glyph glyph-name="Icircumflex" unicode="&#xce;" horiz-adv-x="222" 
d="M77 0h69v698h-69v-698zM-24 726h46l88 102l88 -102h46l-93 144h-82z" />
    <glyph glyph-name="Idieresis" unicode="&#xcf;" horiz-adv-x="222" 
d="M77 0h69v698h-69v-698zM159 758h75v84h-75v-84zM-12 758h75v84h-75v-84z" />
    <glyph glyph-name="Eth" unicode="&#xd0;" horiz-adv-x="667" 
d="M80 389h-69v-60h69v-329h122q177 0 287 81q111 82 113 269q-7 354 -404 348h-118v-309zM149 638h46q155 1 246 -58q91 -61 92 -226q-8 -301 -327 -294h-57v269h213v60h-213v249z" />
    <glyph glyph-name="Ntilde" unicode="&#xd1;" horiz-adv-x="667" 
d="M77 0h69v602h2l349 -602h93v698h-69v-614h-2l-355 614h-87v-698zM236 749q7 18 17 27q8 9 27 9q20 -1 47 -12q27 -12 62 -13q21 -1 48 17q26 18 35 71h-37q-5 -16 -18 -25q-14 -9 -31 -9q-14 1 -44 13q-30 11 -61 12q-34 -1 -54 -28q-19 -27 -27 -62h36z" />
    <glyph glyph-name="Ograve" unicode="&#xd2;" horiz-adv-x="722" 
d="M54 349q2 -163 80 -260q77 -99 227 -101q151 2 229 101q77 97 78 260q2 147 -73 252q-76 106 -234 109q-157 -3 -232 -109q-76 -105 -75 -252zM361 650q123 -3 181 -94q57 -91 57 -207t-57 -205q-58 -94 -181 -96q-122 2 -180 96q-58 89 -58 205t58 207t180 94zM330 870
h-79l126 -144h46z" />
    <glyph glyph-name="Oacute" unicode="&#xd3;" horiz-adv-x="722" 
d="M54 349q2 -163 80 -260q77 -99 227 -101q151 2 229 101q77 97 78 260q2 147 -73 252q-76 106 -234 109q-157 -3 -232 -109q-76 -105 -75 -252zM361 650q123 -3 181 -94q57 -91 57 -207t-57 -205q-58 -94 -181 -96q-122 2 -180 96q-58 89 -58 205t58 207t180 94zM310 726
h46l126 144h-79z" />
    <glyph glyph-name="Ocircumflex" unicode="&#xd4;" horiz-adv-x="722" 
d="M54 349q2 -163 80 -260q77 -99 227 -101q151 2 229 101q77 97 78 260q2 147 -73 252q-76 106 -234 109q-157 -3 -232 -109q-76 -105 -75 -252zM361 650q123 -3 181 -94q57 -91 57 -207t-57 -205q-58 -94 -181 -96q-122 2 -180 96q-58 89 -58 205t58 207t180 94zM231 726
h46l88 102l88 -102h46l-93 144h-82z" />
    <glyph glyph-name="Otilde" unicode="&#xd5;" horiz-adv-x="722" 
d="M54 349q2 -163 80 -260q77 -99 227 -101q151 2 229 101q77 97 78 260q2 147 -73 252q-76 106 -234 109q-157 -3 -232 -109q-76 -105 -75 -252zM361 650q123 -3 181 -94q57 -91 57 -207t-57 -205q-58 -94 -181 -96q-122 2 -180 96q-58 89 -58 205t58 207t180 94zM263 749
q7 18 17 27q8 9 27 9q20 -1 47 -12q27 -12 62 -13q21 -1 48 17q26 18 35 71h-37q-5 -16 -18 -25q-14 -9 -31 -9q-14 1 -44 13q-30 11 -61 12q-34 -1 -54 -28q-19 -27 -27 -62h36z" />
    <glyph glyph-name="Odieresis" unicode="&#xd6;" horiz-adv-x="722" 
d="M54 349q2 -163 80 -260q77 -99 227 -101q151 2 229 101q77 97 78 260q2 147 -73 252q-76 106 -234 109q-157 -3 -232 -109q-76 -105 -75 -252zM361 650q123 -3 181 -94q57 -91 57 -207t-57 -205q-58 -94 -181 -96q-122 2 -180 96q-58 89 -58 205t58 207t180 94zM414 758
h75v84h-75v-84zM243 758h75v84h-75v-84z" />
    <glyph glyph-name="multiply" unicode="&#xd7;" horiz-adv-x="600" 
d="M252 257l-181 -181l49 -50l181 182l179 -182l50 50l-180 181l180 180l-50 49l-179 -181l-181 181l-49 -49z" />
    <glyph glyph-name="Oslash" unicode="&#xd8;" horiz-adv-x="722" 
d="M166 169q-43 81 -43 180q0 116 58 207t180 94q104 -2 162 -73zM554 534q45 -84 45 -185q0 -116 -57 -205q-58 -94 -181 -96q-108 2 -165 76zM654 727l-86 -98q-75 80 -207 81q-157 -3 -232 -109q-76 -105 -75 -252q2 -145 63 -237l-88 -101l39 -33l81 93q75 -82 212 -83
q151 2 229 101q77 97 78 260q2 140 -66 240l91 105z" />
    <glyph glyph-name="Ugrave" unicode="&#xd9;" horiz-adv-x="667" 
d="M587 698h-69v-454q0 -87 -46 -140q-46 -55 -138 -56q-90 1 -137 56q-47 53 -47 140v454h-69v-454q0 -76 26 -126q25 -51 63 -79q39 -28 83 -39q43 -12 81 -12q40 0 84 12q43 11 82 39q38 28 63 79q23 50 24 126v454zM303 870h-79l126 -144h46z" />
    <glyph glyph-name="Uacute" unicode="&#xda;" horiz-adv-x="667" 
d="M587 698h-69v-454q0 -87 -46 -140q-46 -55 -138 -56q-90 1 -137 56q-47 53 -47 140v454h-69v-454q0 -76 26 -126q25 -51 63 -79q39 -28 83 -39q43 -12 81 -12q40 0 84 12q43 11 82 39q38 28 63 79q23 50 24 126v454zM282 726h46l126 144h-79z" />
    <glyph glyph-name="Ucircumflex" unicode="&#xdb;" horiz-adv-x="667" 
d="M587 698h-69v-454q0 -87 -46 -140q-46 -55 -138 -56q-90 1 -137 56q-47 53 -47 140v454h-69v-454q0 -76 26 -126q25 -51 63 -79q39 -28 83 -39q43 -12 81 -12q40 0 84 12q43 11 82 39q38 28 63 79q23 50 24 126v454zM204 726h46l88 102l88 -102h46l-93 144h-82z" />
    <glyph glyph-name="Udieresis" unicode="&#xdc;" horiz-adv-x="667" 
d="M587 698h-69v-454q0 -87 -46 -140q-46 -55 -138 -56q-90 1 -137 56q-47 53 -47 140v454h-69v-454q0 -76 26 -126q25 -51 63 -79q39 -28 83 -39q43 -12 81 -12q40 0 84 12q43 11 82 39q38 28 63 79q23 50 24 126v454zM386 758h75v84h-75v-84zM215 758h75v84h-75v-84z" />
    <glyph glyph-name="Yacute" unicode="&#xdd;" horiz-adv-x="611" 
d="M271 0h69v296l259 402h-75l-219 -341l-213 341h-80l259 -402v-296zM255 726h46l126 144h-79z" />
    <glyph glyph-name="Thorn" unicode="&#xde;" horiz-adv-x="500" 
d="M86 0h69v172h96q97 0 159 51q63 50 64 147q-5 198 -216 198h-103v130h-69v-698zM155 508h112q136 -2 138 -138q0 -46 -16 -74t-45 -42q-29 -13 -65 -17q-36 -5 -76 -5h-48v276z" />
    <glyph glyph-name="germandbls" unicode="&#xdf;" 
d="M79 0h63v520q0 57 13 94q11 36 29 57q20 21 44 30q24 7 51 7q57 -1 89 -38q31 -37 31 -96q-1 -70 -40 -111q-40 -42 -105 -42h-18v-54h10q88 0 139 -32q51 -34 52 -121q0 -74 -37 -119q-38 -47 -110 -48q-46 -1 -82 17l-4 -59q22 -7 46 -9q23 -3 39 -3q103 1 160 64
q56 60 57 158q-1 165 -172 185v2q132 33 134 174q-5 182 -189 186q-102 -1 -151 -61t-49 -159v-542z" />
    <glyph glyph-name="agrave" unicode="&#xe0;" horiz-adv-x="500" 
d="M372 0h62q-6 49 -5 107v225q2 192 -179 190q-79 -2 -150 -35v-61q71 43 150 42q119 0 116 -131v-26h-12q-50 0 -104 -3q-55 -5 -102 -22q-47 -16 -77 -53q-31 -37 -31 -101q-2 -39 30 -89q18 -23 52 -38q33 -16 86 -17q50 1 95 25t67 69h2v-82zM366 226q0 -20 -2 -51
q-2 -30 -17 -61q-14 -29 -45 -50q-32 -22 -87 -22q-44 0 -74 22q-32 21 -32 70q0 42 23 67q21 25 56 37q35 13 78 17q41 2 82 2h18v-31zM216 710h-79l126 -144h46z" />
    <glyph glyph-name="aacute" unicode="&#xe1;" horiz-adv-x="500" 
d="M372 0h62q-6 49 -5 107v225q2 192 -179 190q-79 -2 -150 -35v-61q71 43 150 42q119 0 116 -131v-26h-12q-50 0 -104 -3q-55 -5 -102 -22q-47 -16 -77 -53q-31 -37 -31 -101q-2 -39 30 -89q18 -23 52 -38q33 -16 86 -17q50 1 95 25t67 69h2v-82zM366 226q0 -20 -2 -51
q-2 -30 -17 -61q-14 -29 -45 -50q-32 -22 -87 -22q-44 0 -74 22q-32 21 -32 70q0 42 23 67q21 25 56 37q35 13 78 17q41 2 82 2h18v-31zM194 566h46l126 144h-79z" />
    <glyph glyph-name="acircumflex" unicode="&#xe2;" horiz-adv-x="500" 
d="M372 0h62q-6 49 -5 107v225q2 192 -179 190q-79 -2 -150 -35v-61q71 43 150 42q119 0 116 -131v-26h-12q-50 0 -104 -3q-55 -5 -102 -22q-47 -16 -77 -53q-31 -37 -31 -101q-2 -39 30 -89q18 -23 52 -38q33 -16 86 -17q50 1 95 25t67 69h2v-82zM366 226q0 -20 -2 -51
q-2 -30 -17 -61q-14 -29 -45 -50q-32 -22 -87 -22q-44 0 -74 22q-32 21 -32 70q0 42 23 67q21 25 56 37q35 13 78 17q41 2 82 2h18v-31zM117 566h46l88 102l88 -102h46l-93 144h-82z" />
    <glyph glyph-name="atilde" unicode="&#xe3;" horiz-adv-x="500" 
d="M372 0h62q-6 49 -5 107v225q2 192 -179 190q-79 -2 -150 -35v-61q71 43 150 42q119 0 116 -131v-26h-12q-50 0 -104 -3q-55 -5 -102 -22q-47 -16 -77 -53q-31 -37 -31 -101q-2 -39 30 -89q18 -23 52 -38q33 -16 86 -17q50 1 95 25t67 69h2v-82zM366 226q0 -20 -2 -51
q-2 -30 -17 -61q-14 -29 -45 -50q-32 -22 -87 -22q-44 0 -74 22q-32 21 -32 70q0 42 23 67q21 25 56 37q35 13 78 17q41 2 82 2h18v-31zM148 589q7 18 17 27q8 9 27 9q20 -1 47 -12q27 -12 62 -13q21 -1 48 17q26 18 35 71h-37q-5 -16 -18 -25q-14 -9 -31 -9q-14 1 -44 13
q-30 11 -61 12q-34 -1 -54 -28q-19 -27 -27 -62h36z" />
    <glyph glyph-name="adieresis" unicode="&#xe4;" horiz-adv-x="500" 
d="M372 0h62q-6 49 -5 107v225q2 192 -179 190q-79 -2 -150 -35v-61q71 43 150 42q119 0 116 -131v-26h-12q-50 0 -104 -3q-55 -5 -102 -22q-47 -16 -77 -53q-31 -37 -31 -101q-2 -39 30 -89q18 -23 52 -38q33 -16 86 -17q50 1 95 25t67 69h2v-82zM366 226q0 -20 -2 -51
q-2 -30 -17 -61q-14 -29 -45 -50q-32 -22 -87 -22q-44 0 -74 22q-32 21 -32 70q0 42 23 67q21 25 56 37q35 13 78 17q41 2 82 2h18v-31zM299 598h75v84h-75v-84zM128 598h75v84h-75v-84z" />
    <glyph glyph-name="aring" unicode="&#xe5;" horiz-adv-x="500" 
d="M372 0h62q-6 49 -5 107v225q2 192 -179 190q-79 -2 -150 -35v-61q71 43 150 42q119 0 116 -131v-26h-12q-50 0 -104 -3q-55 -5 -102 -22q-47 -16 -77 -53q-31 -37 -31 -101q-2 -39 30 -89q18 -23 52 -38q33 -16 86 -17q50 1 95 25t67 69h2v-82zM366 226q0 -20 -2 -51
q-2 -30 -17 -61q-14 -29 -45 -50q-32 -22 -87 -22q-44 0 -74 22q-32 21 -32 70q0 42 23 67q21 25 56 37q35 13 78 17q41 2 82 2h18v-31zM155 648q0 -41 28 -67q27 -28 68 -28t69 28q26 26 27 67q-1 42 -27 68q-28 26 -69 27q-41 -1 -68 -27q-28 -26 -28 -68zM191 648
q0 26 18 43q17 16 42 16q26 0 43 -16q17 -17 17 -43t-17 -41q-17 -18 -43 -18q-25 0 -42 18q-18 15 -18 41z" />
    <glyph glyph-name="ae" unicode="&#xe6;" horiz-adv-x="833" 
d="M372 210q1 -71 -33 -118q-35 -49 -118 -50q-39 0 -71 21q-34 21 -35 61q0 43 26 66q25 23 62 33q38 10 78 13q40 1 69 1h22v-27zM749 80q-24 -14 -65 -25q-41 -13 -78 -13q-88 1 -126 50q-40 48 -39 122v23h346v32q0 106 -47 178q-49 73 -156 75q-50 0 -93 -25
q-44 -24 -72 -67q-24 53 -65 73q-41 19 -98 19q-79 -2 -150 -35v-61q70 43 151 42q36 0 59 -11q22 -11 34 -31q23 -42 22 -108v-27h-44q-38 0 -86 -2q-47 -4 -92 -20t-73 -50q-31 -34 -31 -95q0 -68 47 -101q45 -35 121 -35q50 0 100 21q50 22 93 82q37 -99 194 -103
q76 1 148 28v64zM441 291q0 69 41 122q39 53 106 55q70 -2 101 -55q29 -52 29 -122h-277z" />
    <glyph glyph-name="ccedilla" unicode="&#xe7;" horiz-adv-x="444" 
d="M416 502q-6 3 -17 7q-12 3 -28 6q-31 7 -78 7q-114 -1 -182 -74q-69 -72 -70 -193q0 -102 54 -177q53 -75 162 -88l-26 -75q21 4 42 4q37 0 38 -37q-2 -37 -52 -37q-28 1 -53 12q-25 10 -36 17l-7 -37q8 -2 38 -11q30 -10 63 -11q37 0 73 13q35 14 37 56q-1 32 -21 49
q-21 16 -52 16q-18 0 -33 -3l15 42h2q69 -1 131 18l-6 59q-56 -23 -115 -23q-86 1 -135 64q-50 60 -50 149q0 95 51 154q49 58 141 59q55 -1 109 -26z" />
    <glyph glyph-name="egrave" unicode="&#xe8;" horiz-adv-x="500" 
d="M421 80q-24 -14 -65 -25q-41 -13 -78 -13q-83 1 -125 58q-43 54 -43 137h349v32q0 106 -47 178q-49 73 -156 75q-98 -1 -155 -74q-59 -74 -60 -193q-1 -117 53 -190q54 -75 179 -77q76 1 148 28v64zM110 291q0 67 41 121q40 54 109 56q70 -2 101 -55q29 -52 29 -122h-280
zM215 710h-79l126 -144h46z" />
    <glyph glyph-name="eacute" unicode="&#xe9;" horiz-adv-x="500" 
d="M421 80q-24 -14 -65 -25q-41 -13 -78 -13q-83 1 -125 58q-43 54 -43 137h349v32q0 106 -47 178q-49 73 -156 75q-98 -1 -155 -74q-59 -74 -60 -193q-1 -117 53 -190q54 -75 179 -77q76 1 148 28v64zM110 291q0 67 41 121q40 54 109 56q70 -2 101 -55q29 -52 29 -122h-280
zM195 566h46l126 144h-79z" />
    <glyph glyph-name="ecircumflex" unicode="&#xea;" horiz-adv-x="500" 
d="M421 80q-24 -14 -65 -25q-41 -13 -78 -13q-83 1 -125 58q-43 54 -43 137h349v32q0 106 -47 178q-49 73 -156 75q-98 -1 -155 -74q-59 -74 -60 -193q-1 -117 53 -190q54 -75 179 -77q76 1 148 28v64zM110 291q0 67 41 121q40 54 109 56q70 -2 101 -55q29 -52 29 -122h-280
zM118 566h46l88 102l88 -102h46l-93 144h-82z" />
    <glyph glyph-name="edieresis" unicode="&#xeb;" horiz-adv-x="500" 
d="M421 80q-24 -14 -65 -25q-41 -13 -78 -13q-83 1 -125 58q-43 54 -43 137h349v32q0 106 -47 178q-49 73 -156 75q-98 -1 -155 -74q-59 -74 -60 -193q-1 -117 53 -190q54 -75 179 -77q76 1 148 28v64zM110 291q0 67 41 121q40 54 109 56q70 -2 101 -55q29 -52 29 -122h-280
zM300 598h75v84h-75v-84zM129 598h75v84h-75v-84z" />
    <glyph glyph-name="igrave" unicode="&#xec;" horiz-adv-x="222" 
d="M79 0h63v510h-63v-510zM75 710h-79l126 -144h46z" />
    <glyph glyph-name="iacute" unicode="&#xed;" horiz-adv-x="222" 
d="M79 0h63v510h-63v-510zM53 566h46l126 144h-79z" />
    <glyph glyph-name="icircumflex" unicode="&#xee;" horiz-adv-x="222" 
d="M79 0h63v510h-63v-510zM-23 566h46l88 102l88 -102h46l-93 144h-82z" />
    <glyph glyph-name="idieresis" unicode="&#xef;" horiz-adv-x="222" 
d="M79 0h63v510h-63v-510zM159 598h75v84h-75v-84zM-12 598h75v84h-75v-84z" />
    <glyph glyph-name="eth" unicode="&#xf0;" 
d="M109 255q0 91 44 152q42 60 125 61q83 -1 127 -61q42 -61 42 -152t-42 -150q-44 -62 -127 -63q-83 1 -125 63q-44 59 -44 150zM212 564l108 67q88 -70 117 -188h-2q-61 78 -157 79q-122 -2 -180 -81q-58 -77 -58 -186q0 -107 58 -185q58 -80 180 -82q239 3 238 308
q2 236 -140 370l93 57l-30 42l-107 -66q-73 47 -182 63l-12 -48q74 -15 135 -51l-91 -57z" />
    <glyph glyph-name="ntilde" unicode="&#xf1;" 
d="M79 0h63v282q0 34 8 67q7 32 25 59q34 58 118 60q65 -1 94 -42q27 -43 27 -116v-310h63v326q0 86 -39 140q-41 55 -135 56q-39 0 -67 -9t-47 -25q-18 -15 -30 -33t-21 -36h-2v91h-61q4 -61 4 -120v-390zM178 589q7 18 17 27q8 9 27 9q20 -1 47 -12q27 -12 62 -13
q21 -1 48 17q26 18 35 71h-37q-5 -16 -18 -25q-14 -9 -31 -9q-14 1 -44 13q-30 11 -61 12q-34 -1 -54 -28q-19 -27 -27 -62h36z" />
    <glyph glyph-name="ograve" unicode="&#xf2;" 
d="M40 255q0 -107 58 -185q58 -80 180 -82q124 2 182 82q56 78 56 185q0 109 -56 186q-58 79 -182 81q-122 -2 -180 -81q-58 -77 -58 -186zM109 255q0 91 44 152q42 60 125 61q83 -1 127 -61q42 -61 42 -152t-42 -150q-44 -62 -127 -63q-83 1 -125 63q-44 59 -44 150z
M246 710h-79l126 -144h46z" />
    <glyph glyph-name="oacute" unicode="&#xf3;" 
d="M40 255q0 -107 58 -185q58 -80 180 -82q124 2 182 82q56 78 56 185q0 109 -56 186q-58 79 -182 81q-122 -2 -180 -81q-58 -77 -58 -186zM109 255q0 91 44 152q42 60 125 61q83 -1 127 -61q42 -61 42 -152t-42 -150q-44 -62 -127 -63q-83 1 -125 63q-44 59 -44 150z
M226 566h46l126 144h-79z" />
    <glyph glyph-name="ocircumflex" unicode="&#xf4;" 
d="M40 255q0 -107 58 -185q58 -80 180 -82q124 2 182 82q56 78 56 185q0 109 -56 186q-58 79 -182 81q-122 -2 -180 -81q-58 -77 -58 -186zM109 255q0 91 44 152q42 60 125 61q83 -1 127 -61q42 -61 42 -152t-42 -150q-44 -62 -127 -63q-83 1 -125 63q-44 59 -44 150z
M147 566h46l88 102l88 -102h46l-93 144h-82z" />
    <glyph glyph-name="otilde" unicode="&#xf5;" 
d="M40 255q0 -107 58 -185q58 -80 180 -82q124 2 182 82q56 78 56 185q0 109 -56 186q-58 79 -182 81q-122 -2 -180 -81q-58 -77 -58 -186zM109 255q0 91 44 152q42 60 125 61q83 -1 127 -61q42 -61 42 -152t-42 -150q-44 -62 -127 -63q-83 1 -125 63q-44 59 -44 150z
M179 589q7 18 17 27q8 9 27 9q20 -1 47 -12q27 -12 62 -13q21 -1 48 17q26 18 35 71h-37q-5 -16 -18 -25q-14 -9 -31 -9q-14 1 -44 13q-30 11 -61 12q-34 -1 -54 -28q-19 -27 -27 -62h36z" />
    <glyph glyph-name="odieresis" unicode="&#xf6;" 
d="M40 255q0 -107 58 -185q58 -80 180 -82q124 2 182 82q56 78 56 185q0 109 -56 186q-58 79 -182 81q-122 -2 -180 -81q-58 -77 -58 -186zM109 255q0 91 44 152q42 60 125 61q83 -1 127 -61q42 -61 42 -152t-42 -150q-44 -62 -127 -63q-83 1 -125 63q-44 59 -44 150z
M330 598h75v84h-75v-84zM159 598h75v84h-75v-84z" />
    <glyph glyph-name="divide" unicode="&#xf7;" horiz-adv-x="600" 
d="M46 219h507v69h-507v-69zM236 450q0 -26 20 -44q18 -20 44 -20t45 20q19 19 19 44q0 26 -19 45t-45 19q-26 -1 -44 -18q-20 -18 -20 -46zM236 57q0 -26 20 -44q18 -19 44 -20q26 1 45 20t19 44q0 26 -19 45t-45 19q-26 -1 -44 -18q-20 -18 -20 -46z" />
    <glyph glyph-name="oslash" unicode="&#xf8;" 
d="M139 127q-30 55 -30 128q0 91 44 152q42 60 125 61q71 -1 115 -49zM419 380q28 -53 28 -125q0 -91 -42 -150q-44 -62 -127 -63q-69 0 -112 47zM502 545l-68 -79q-54 55 -156 56q-122 -2 -180 -81q-58 -77 -58 -186q-1 -103 54 -180l-75 -86l35 -29l70 81q57 -52 154 -53
q124 2 182 82q56 78 56 185q0 103 -52 177l73 84z" />
    <glyph glyph-name="ugrave" unicode="&#xf9;" 
d="M477 510h-63v-282q0 -32 -7 -64t-25 -60q-16 -27 -46 -44q-30 -18 -73 -18q-64 0 -92 44q-29 41 -29 114v310h-63v-326q-1 -86 40 -140q41 -55 134 -56q40 0 68 11q28 9 47 24q19 16 31 34q12 17 19 34h2v-91h61q-5 62 -4 120v390zM243 710h-79l126 -144h46z" />
    <glyph glyph-name="uacute" unicode="&#xfa;" 
d="M477 510h-63v-282q0 -32 -7 -64t-25 -60q-16 -27 -46 -44q-30 -18 -73 -18q-64 0 -92 44q-29 41 -29 114v310h-63v-326q-1 -86 40 -140q41 -55 134 -56q40 0 68 11q28 9 47 24q19 16 31 34q12 17 19 34h2v-91h61q-5 62 -4 120v390zM223 566h46l126 144h-79z" />
    <glyph glyph-name="ucircumflex" unicode="&#xfb;" 
d="M477 510h-63v-282q0 -32 -7 -64t-25 -60q-16 -27 -46 -44q-30 -18 -73 -18q-64 0 -92 44q-29 41 -29 114v310h-63v-326q-1 -86 40 -140q41 -55 134 -56q40 0 68 11q28 9 47 24q19 16 31 34q12 17 19 34h2v-91h61q-5 62 -4 120v390zM145 566h46l88 102l88 -102h46l-93 144
h-82z" />
    <glyph glyph-name="udieresis" unicode="&#xfc;" 
d="M477 510h-63v-282q0 -32 -7 -64t-25 -60q-16 -27 -46 -44q-30 -18 -73 -18q-64 0 -92 44q-29 41 -29 114v310h-63v-326q-1 -86 40 -140q41 -55 134 -56q40 0 68 11q28 9 47 24q19 16 31 34q12 17 19 34h2v-91h61q-5 62 -4 120v390zM328 598h75v84h-75v-84zM157 598h75v84
h-75v-84z" />
    <glyph glyph-name="yacute" unicode="&#xfd;" horiz-adv-x="444" 
d="M78 510h-69l181 -516l-13 -45q-13 -50 -33 -79q-20 -31 -59 -32q-16 0 -27 3q-11 2 -20 5l-6 -54q33 -8 68 -8q27 1 48 13q21 11 36 31q30 41 47 96l204 586h-66l-147 -425h-1zM168 566h46l126 144h-79z" />
    <glyph glyph-name="thorn" unicode="&#xfe;" 
d="M73 -210h63v303h2q43 -105 159 -105q105 2 158 77q52 75 52 190q0 119 -48 192q-50 74 -162 75q-40 0 -68 -11q-28 -13 -47 -30q-18 -17 -28 -34q-12 -19 -16 -30h-2v333h-63v-960zM438 255q0 -36 -5 -73q-7 -38 -25 -70q-16 -30 -46 -49q-30 -21 -75 -21q-42 0 -70 21
q-29 19 -47 51q-35 68 -34 141q0 36 9 74q7 36 25 68t47 52q28 19 70 19q45 0 75 -19q30 -18 46 -50q18 -30 25 -68q5 -38 5 -76z" />
    <glyph glyph-name="ydieresis" unicode="&#xff;" horiz-adv-x="444" 
d="M78 510h-69l181 -516l-13 -45q-13 -50 -33 -79q-20 -31 -59 -32q-16 0 -27 3q-11 2 -20 5l-6 -54q33 -8 68 -8q27 1 48 13q21 11 36 31q30 41 47 96l204 586h-66l-147 -425h-1zM272 598h75v84h-75v-84zM101 598h75v84h-75v-84z" />
    <glyph glyph-name="hyphen" horiz-adv-x="333" 
d="M41 235h251v69h-251v-69z" />
    <glyph glyph-name=".2" horiz-adv-x="167" 
d="M-152 -22h57l413 742h-57z" />
    <glyph glyph-name=".3" 
d="M403 0h63v510h-63v-510zM466 730h-63v-84h63v84zM122 0h63v456h115v54h-115v44q0 25 1 52q0 26 6 49t23 39q16 14 47 14q29 0 50 -11l4 55q-9 6 -26 9q-17 1 -33 1q-48 0 -75 -18q-28 -18 -41 -49q-13 -30 -15 -68q-4 -39 -4 -80v-37h-103v-54h103v-456z" />
    <glyph glyph-name=".4" 
d="M403 0h63v750h-63v-750zM122 0h63v456h115v54h-115v44q0 25 1 52q0 26 6 49t23 39q16 14 47 14q29 0 50 -11l4 55q-9 6 -26 9q-17 1 -33 1q-48 0 -75 -18q-28 -18 -41 -49q-13 -30 -15 -68q-4 -39 -4 -80v-37h-103v-54h103v-456z" />
    <glyph glyph-name=".5" horiz-adv-x="222" 
d="M-12 699q8 -51 39 -82q32 -34 84 -34q53 0 85 34q32 31 38 82h-30q-10 -31 -35 -43q-27 -13 -58 -13t-56 13q-27 12 -37 43h-30z" />
    <glyph glyph-name=".6" horiz-adv-x="222" 
d="M74 604h75v84h-75v-84z" />
    <glyph glyph-name=".7" horiz-adv-x="222" 
d="M15 648q0 -41 28 -67q27 -28 68 -28t69 28q26 26 27 67q-1 42 -27 68q-28 26 -69 27q-41 -1 -68 -27q-28 -26 -28 -68zM51 648q0 26 18 43q17 16 42 16q26 0 43 -16q17 -17 17 -43t-17 -41q-17 -18 -43 -18q-25 0 -42 18q-18 15 -18 41z" />
    <glyph glyph-name=".8" horiz-adv-x="222" 
d="M254 -137q-20 -36 -60 -37q-52 1 -52 50q-1 25 17 55q18 29 69 69h-28q-30 -15 -73 -50q-20 -18 -33 -39q-15 -22 -15 -48q1 -35 29 -53q26 -20 59 -20q45 1 70 24q24 21 31 41z" />
    <glyph glyph-name=".9" horiz-adv-x="222" 
d="M245 716h-46l-88 -102l-88 102h-46l93 -144h82z" />
    <glyph glyph-name=".10" horiz-adv-x="444" 
d="M80 311l-72 -51v-69l72 51v-242h349v60h-280v231l175 124v68l-175 -123v338h-69v-387z" />
    <glyph glyph-name=".11" horiz-adv-x="222" 
d="M79 0h63v510h-63v-510z" />
    <glyph glyph-name=".12" horiz-adv-x="222" 
d="M79 342v-342h63v392l66 53v69l-66 -53v289h-63v-339l-66 -53v-69z" />
    <glyph glyph-name=".13" horiz-adv-x="600" 
d="M46 219h507v69h-507v-69z" />
    <glyph glyph-name="ring" horiz-adv-x="222" 
d="M15 648q0 -41 28 -67q27 -28 68 -28t69 28q26 26 27 67q-1 42 -27 68q-28 26 -69 27q-41 -1 -68 -27q-28 -26 -28 -68zM51 648q0 26 18 43q17 16 42 16q26 0 43 -16q17 -17 17 -43t-17 -41q-17 -18 -43 -18q-25 0 -42 18q-18 15 -18 41z" />
    <glyph glyph-name="fi" 
d="M403 0h63v510h-63v-510zM466 730h-63v-84h63v84zM122 0h63v456h115v54h-115v44q0 25 1 52q0 26 6 49t23 39q16 14 47 14q29 0 50 -11l4 55q-9 6 -26 9q-17 1 -33 1q-48 0 -75 -18q-28 -18 -41 -49q-13 -30 -15 -68q-4 -39 -4 -80v-37h-103v-54h103v-456z" />
    <glyph glyph-name="fl" 
d="M403 0h63v750h-63v-750zM122 0h63v456h115v54h-115v44q0 25 1 52q0 26 6 49t23 39q16 14 47 14q29 0 50 -11l4 55q-9 6 -26 9q-17 1 -33 1q-48 0 -75 -18q-28 -18 -41 -49q-13 -30 -15 -68q-4 -39 -4 -80v-37h-103v-54h103v-456z" />
    <glyph glyph-name="Lslash" horiz-adv-x="444" 
d="M80 311l-72 -51v-69l72 51v-242h349v60h-280v231l175 124v68l-175 -123v338h-69v-387z" />
    <glyph glyph-name="lslash" horiz-adv-x="222" 
d="M79 342v-342h63v392l66 53v69l-66 -53v289h-63v-339l-66 -53v-69z" />
    <glyph glyph-name="dotlessi" horiz-adv-x="222" 
d="M79 0h63v510h-63v-510z" />
    <glyph glyph-name="caron" horiz-adv-x="222" 
d="M245 716h-46l-88 -102l-88 102h-46l93 -144h82z" />
    <glyph glyph-name="minus" horiz-adv-x="600" 
d="M46 219h507v69h-507v-69z" />
    <glyph glyph-name="ogonek" horiz-adv-x="222" 
d="M254 -137q-20 -36 -60 -37q-52 1 -52 50q-1 25 17 55q18 29 69 69h-28q-30 -15 -73 -50q-20 -18 -33 -39q-15 -22 -15 -48q1 -35 29 -53q26 -20 59 -20q45 1 70 24q24 21 31 41z" />
    <glyph glyph-name="fraction" horiz-adv-x="167" 
d="M-152 -22h57l413 742h-57z" />
    <glyph glyph-name="dotaccent" horiz-adv-x="222" 
d="M74 604h75v84h-75v-84z" />
    <glyph glyph-name="breve" horiz-adv-x="222" 
d="M-12 699q8 -51 39 -82q32 -34 84 -34q53 0 85 34q32 31 38 82h-30q-10 -31 -35 -43q-27 -13 -58 -13t-56 13q-27 12 -37 43h-30z" />
    <hkern u1="&#x2018;" u2="&#x2018;" k="102" />
    <hkern u1="&#x2019;" u2="&#x2019;" k="102" />
    <hkern u1="&#x2019;" u2="t" k="18" />
    <hkern u1="&#x2019;" u2="s" k="111" />
  </font>
</defs></svg>
